\relax 
\providecommand \oddpage@label [2]{}
\citation{worldbank2012building}
\citation{johnson2013newer}
\citation{ciccone2010determinants}
\citation{mellander2015night}
\citation{henderson2012measuring}
\citation{elvidge1997mapping}
\citation{bleakley2012portage}
\citation{hodler2014regional}
\citation{mellander2015night}
\citation{chen2011using}
\@writefile{toc}{\contentsline {section}{\numberline {1}Introduction}{1}}
\citation{ramsey1969tests}
\citation{hodler2014regional}
\citation{gennaioli2014growth}
\citation{hodler2014regional}
\citation{mellander2015night}
\citation{bickenbach2016night}
\citation{gennaioli2014growth}
\citation{ramankutty2008farming}
\@writefile{toc}{\contentsline {section}{\numberline {2}Data}{3}}
\@writefile{toc}{\contentsline {subsection}{\numberline {2.1}Data sources}{3}}
\citation{elvidge1999radiance}
\citation{henderson2016global}
\citation{elvidge1999radiance}
\citation{ramankutty2008farming}
\citation{henderson2012measuring}
\citation{henderson2012measuring}
\citation{gennaioli2014growth}
\citation{gennaioli2014growth}
\citation{gennaioli2014growth}
\@writefile{lof}{\contentsline {figure}{\numberline {1}{\ignorespaces DMSP-OLS lights, 2008. Robinson projection. \newline  \relax \fontsize  {8}{9.5}\selectfont  \abovedisplayskip 6\p@ plus2\p@ minus4\p@ \abovedisplayshortskip \z@ plus\p@ \belowdisplayshortskip 3\p@ plus\p@ minus2\p@ \def \leftmargin \leftmargini \parsep 4\p@ plus2\p@ minus\p@ \topsep 8\p@ plus2\p@ minus4\p@ \itemsep 4\p@ plus2\p@ minus\p@ {\leftmargin \leftmargini \topsep 3\p@ plus\p@ minus\p@ \parsep 2\p@ plus\p@ minus\p@ \itemsep \parsep }\belowdisplayskip \abovedisplayskip Source: NOAA National Geophysical Data Center, as seen in \cite  {henderson2012measuring}\relax }}{5}}
\providecommand*\caption@xref[2]{\@setref\relax\@undefined{#1}}
\newlabel{figure:dmsp}{{1}{5}}
\citation{gennaioli2014growth}
\@writefile{lof}{\contentsline {figure}{\numberline {2}{\ignorespaces Estimated global population distribution in 2000 \newline  \relax \fontsize  {8}{9.5}\selectfont  \abovedisplayskip 6\p@ plus2\p@ minus4\p@ \abovedisplayshortskip \z@ plus\p@ \belowdisplayshortskip 3\p@ plus\p@ minus2\p@ \def \leftmargin \leftmargini \parsep 4\p@ plus2\p@ minus\p@ \topsep 8\p@ plus2\p@ minus4\p@ \itemsep 4\p@ plus2\p@ minus\p@ {\leftmargin \leftmargini \topsep 3\p@ plus\p@ minus\p@ \parsep 2\p@ plus\p@ minus\p@ \itemsep \parsep }\belowdisplayskip \abovedisplayskip Source: SEDAC\relax }}{6}}
\newlabel{figure:popmap}{{2}{6}}
\citation{henderson2012measuring}
\citation{hodler2014regional}
\citation{henderson2012measuring}
\citation{hsu2015dmsp}
\citation{hsu2015dmsp}
\citation{hsu2015dmsp}
\citation{elvidge2009fifteen}
\citation{hsu2015dmsp}
\citation{hsu2015dmsp}
\@writefile{toc}{\contentsline {subsection}{\numberline {2.2}Lights calibration}{7}}
\@writefile{lot}{\contentsline {table}{\numberline {1}{\ignorespaces Linear models for inter-annual calibration of radiance calibrated lights\relax }}{8}}
\newlabel{table:calibration}{{1}{8}}
\@writefile{toc}{\contentsline {subsection}{\numberline {2.3}Data description}{8}}
\@writefile{lof}{\contentsline {figure}{\numberline {3}{\ignorespaces Growth density estimation, Gaussian kernel\relax }}{9}}
\newlabel{figure:dens}{{3}{9}}
\@writefile{lof}{\contentsline {figure}{\numberline {4}{\ignorespaces Maps of log difference GDP and lights growth from 2000-2010\relax }}{10}}
\newlabel{figure:growthmaps}{{4}{10}}
\citation{henderson2012measuring}
\@writefile{toc}{\contentsline {section}{\numberline {3}Methods}{11}}
\@writefile{toc}{\contentsline {subsection}{\numberline {3.1}Regression models}{11}}
\newlabel{eq:quadnofe}{{1}{11}}
\newlabel{eq:linfe}{{2}{11}}
\@writefile{toc}{\contentsline {subsection}{\numberline {3.2}Additional explanatory variables}{11}}
\@writefile{lot}{\contentsline {table}{\numberline {2}{\ignorespaces Quartile cutoffs\relax }}{12}}
\newlabel{table:qcutoffs}{{2}{12}}
\citation{solow1956contribution}
\citation{mankiw1992contribution}
\citation{gennaioli2014growth}
\newlabel{eq:decomp}{{3}{13}}
\newlabel{eq:decomp_pc}{{4}{13}}
\newlabel{eq:decomp_p}{{5}{13}}
\citation{akaike1974new}
\@writefile{toc}{\contentsline {subsection}{\numberline {3.3}Specification comparison}{14}}
\citation{burnham2003model}
\citation{hurvich1989regression}
\@writefile{toc}{\contentsline {section}{\numberline {4}Results}{15}}
\@writefile{lot}{\contentsline {table}{\numberline {3}{\ignorespaces Baseline specifications, no controls\relax }}{16}}
\newlabel{table:basenoc}{{3}{16}}
\@writefile{lot}{\contentsline {table}{\numberline {4}{\ignorespaces Baseline specifications, with standard controls\relax }}{17}}
\newlabel{table:basec}{{4}{17}}
\citation{Shapley1953value}
\citation{henderson2012measuring}
\citation{hodler2014regional}
\citation{henderson2012measuring}
\@writefile{lof}{\contentsline {figure}{\numberline {5}{\ignorespaces Long difference relationship between GDP growth and lights growth\relax }}{19}}
\newlabel{figure:lowess}{{5}{19}}
\@writefile{toc}{\contentsline {subsection}{\numberline {4.1}Quadratic specifications without country fixed-effects}{19}}
\newlabel{quad}{{4.1}{19}}
\@writefile{lot}{\contentsline {table}{\numberline {5}{\ignorespaces Quadratic country GDP per capita interactions with standard controls; no country fixed-effects\relax }}{21}}
\newlabel{table:polyquad1}{{5}{21}}
\@writefile{lot}{\contentsline {table}{\numberline {6}{\ignorespaces Quadratic interactions with standard and country GDP per capita quartile controls; no country fixed-effects\relax }}{22}}
\newlabel{table:polyquad2}{{6}{22}}
\@writefile{lof}{\contentsline {figure}{\numberline {6}{\ignorespaces Fitted values comparison, quadratic with standard controls vs. only standard controls; no country fixed-effects\relax }}{24}}
\newlabel{figure:quadfit}{{6}{24}}
\citation{gennaioli2014growth}
\@writefile{toc}{\contentsline {subsection}{\numberline {4.2}Linear specifications with country fixed-effects}{25}}
\citation{mellander2015night}
\@writefile{lot}{\contentsline {table}{\numberline {7}{\ignorespaces Linear regional GDP p.c. quartile interactions with standard controls; country fixed-effects\relax }}{28}}
\newlabel{table:cfergdp}{{7}{28}}
\newlabel{RF1}{29}
\@writefile{lot}{\contentsline {table}{\numberline {8}{\ignorespaces Linear quartile interactions with standard and regional GDP p.c. quartile controls; country fixed-effects\relax }}{29}}
\newlabel{table:cfeother}{{8}{29}}
\citation{mellander2015night}
\@writefile{toc}{\contentsline {subsection}{\numberline {4.3}GDP growth decomposition}{30}}
\@writefile{lot}{\contentsline {table}{\numberline {9}{\ignorespaces Linear baseline decomposition with standard and regional GDP p.c. quartile controls; country fixed-effects\relax }}{31}}
\newlabel{table:decompbaseFE}{{9}{31}}
\@writefile{lot}{\contentsline {table}{\numberline {10}{\ignorespaces Linear country GDP p.c. decomposition with standard and regional GDP p.c. quartile controls; country fixed-effects\relax }}{32}}
\newlabel{table:decompcgdpFE}{{10}{32}}
\citation{hodler2014regional}
\citation{hodler2014regional}
\citation{gennaioli2014growth}
\@writefile{toc}{\contentsline {section}{\numberline {5}Discussion}{33}}
\citation{india2011census}
\@writefile{lot}{\contentsline {table}{\numberline {11}{\ignorespaces Country GDP per capita quartiles\relax }}{34}}
\newlabel{table:qcgdppc}{{11}{34}}
\citation{mellander2015night}
\citation{oecd2013local}
\citation{feng2013chinese}
\citation{gennaioli2014growth}
\@writefile{toc}{\contentsline {subsection}{\numberline {5.1}Outliers}{35}}
\@writefile{lot}{\contentsline {table}{\numberline {12}{\ignorespaces Sorted residuals, linear education quartile interaction with standard and regional GDP p.c. quartile controls; country fixed-effects\relax }}{36}}
\newlabel{table:resid}{{12}{36}}
\citation{estonia2016stat}
\citation{doll2006mapping}
\@writefile{toc}{\contentsline {subsection}{\numberline {5.2}Confounds}{37}}
\citation{berliant2013measuring}
\citation{berliant2013measuring}
\citation{berliant2013measuring}
\citation{gibbons2012mostly}
\citation{bickenbach2016night}
\citation{hodler2014regional}
\@writefile{toc}{\contentsline {section}{\numberline {6}Conclusion}{39}}
\bibstyle{plainnat}
\bibdata{Bibliography}
\bibcite{akaike1974new}{{1}{1974}{{Akaike}}{{}}}
\bibcite{berliant2013measuring}{{2}{2013}{{Berliant and Weiss}}{{}}}
\bibcite{bickenbach2016night}{{3}{2016}{{Bickenbach et~al.}}{{Bickenbach, Bode, Nunnenkamp, and S{\"o}der}}}
\bibcite{bleakley2012portage}{{4}{2012}{{Bleakley and Lin}}{{}}}
\bibcite{burnham2003model}{{5}{2003}{{Burnham and Anderson}}{{}}}
\bibcite{chen2011using}{{6}{2011}{{Chen and Nordhaus}}{{}}}
\bibcite{ciccone2010determinants}{{7}{2010}{{Ciccone and Jaroci{\'n}ski}}{{}}}
\bibcite{doll2006mapping}{{8}{2006}{{Doll et~al.}}{{Doll, Muller, and Morley}}}
\bibcite{elvidge1997mapping}{{9}{1997}{{Elvidge et~al.}}{{Elvidge, Baugh, Kihn, Kroehl, and Davis}}}
\bibcite{elvidge1999radiance}{{10}{1999}{{Elvidge et~al.}}{{Elvidge, Baugh, Dietz, Bland, Sutton, and Kroehl}}}
\bibcite{elvidge2009fifteen}{{11}{2009}{{Elvidge et~al.}}{{Elvidge, Ziskin, Baugh, Tuttle, Ghosh, Pack, Erwin, and Zhizhin}}}
\bibcite{estonia2016stat}{{12}{2016}{{Enno and Raudsaar}}{{}}}
\bibcite{feng2013chinese}{{13}{2013}{{Feng et~al.}}{{Feng, Hu, Hall, and Wang}}}
\bibcite{gennaioli2014growth}{{14}{2014}{{Gennaioli et~al.}}{{Gennaioli, La~Porta, De~Silanes, and Shleifer}}}
\bibcite{gibbons2012mostly}{{15}{2012}{{Gibbons and Overman}}{{}}}
\bibcite{henderson2012measuring}{{16}{2012}{{Henderson et~al.}}{{Henderson, Storeygard, and Weil}}}
\bibcite{henderson2016global}{{17}{2016}{{Henderson et~al.}}{{Henderson, Squires, Storeygard, and Weil}}}
\bibcite{hodler2014regional}{{18}{2014}{{Hodler and Raschky}}{{}}}
\bibcite{hsu2015dmsp}{{19}{2015}{{Hsu et~al.}}{{Hsu, Baugh, Ghosh, Zhizhin, and Elvidge}}}
\bibcite{hurvich1989regression}{{20}{1989}{{Hurvich and Tsai}}{{}}}
\bibcite{johnson2013newer}{{21}{2013}{{Johnson et~al.}}{{Johnson, Larson, Papageorgiou, and Subramanian}}}
\bibcite{mankiw1992contribution}{{22}{1992}{{Mankiw et~al.}}{{Mankiw, Romer, and Weil}}}
\bibcite{mellander2015night}{{23}{2015}{{Mellander et~al.}}{{Mellander, Lobo, Stolarick, and Matheson}}}
\bibcite{oecd2013local}{{24}{2013}{{OECD}}{{}}}
\bibcite{india2011census}{{25}{2011}{{Office of~the Registrar General \& Census~Commissioner}}{{}}}
\bibcite{ramankutty2008farming}{{26}{2008}{{Ramankutty et~al.}}{{Ramankutty, Evan, Monfreda, and Foley}}}
\bibcite{ramsey1969tests}{{27}{1969}{{Ramsey}}{{}}}
\bibcite{Shapley1953value}{{28}{1953}{{Shapley}}{{}}}
\bibcite{solow1956contribution}{{29}{1956}{{Solow}}{{}}}
\bibcite{worldbank2012building}{{30}{2002}{{World Bank}}{{}}}
\bibcite{wu2013intercalibration}{{31}{2013}{{Wu et~al.}}{{Wu, He, Peng, Li, and Zhong}}}
\citation{wu2013intercalibration}
\@writefile{toc}{\contentsline {section}{\numberline {A}Relationship between radiance calibrated and DMSP-OLS lights}{42}}
\@writefile{lof}{\contentsline {figure}{\numberline {A1}{\ignorespaces Log DMSP-OLS lights vs. log radiance calibrated lights, full and restricted samples \newline  \relax \fontsize  {8}{9.5}\selectfont  \abovedisplayskip 6\p@ plus2\p@ minus4\p@ \abovedisplayshortskip \z@ plus\p@ \belowdisplayshortskip 3\p@ plus\p@ minus2\p@ \def \leftmargin \leftmargini \parsep 4\p@ plus2\p@ minus\p@ \topsep 8\p@ plus2\p@ minus4\p@ \itemsep 4\p@ plus2\p@ minus\p@ {\leftmargin \leftmargini \topsep 3\p@ plus\p@ minus\p@ \parsep 2\p@ plus\p@ minus\p@ \itemsep \parsep }\belowdisplayskip \abovedisplayskip Restricted sample drops regions with twice the radiance calibrated light as DMSP-OLS light in 2000\relax }}{42}}
\newlabel{figure:iv}{{A1}{42}}
\citation{wu2013intercalibration}
\@writefile{lot}{\contentsline {table}{\numberline {A1}{\ignorespaces Power models for inter-annual calibration of non-radiance calibrated lights\relax }}{43}}
\citation{hodler2014regional}
\@writefile{toc}{\contentsline {section}{\numberline {B}SLX Models}{44}}
\newlabel{RF2}{45}
\@writefile{lot}{\contentsline {table}{\numberline {B1}{\ignorespaces Linear SLX models with standard and regional GDP p.c. quartile controls; country fixed-effects\relax }}{45}}
\newlabel{table:cfespatial}{{B1}{45}}
